…
boot_straps_result
```

    ## # A tibble: 5,000 × 6
    ##    strap_number strap_sample       models results  r_squared log_beta_product
    ##           <int> <list>             <list> <list>       <dbl>            <dbl>
    ##  1            1 <tibble [365 × 6]> <lm>   <tibble>     0.912             2.01
    ##  2            2 <tibble [365 × 6]> <lm>   <tibble>     0.908             2.05
    ##  3            3 <tibble [365 × 6]> <lm>   <tibble>     0.912             2.03
    ##  4            4 <tibble [365 × 6]> <lm>   <tibble>     0.915             2.01
    ##  5            5 <tibble [365 × 6]> <lm>   <tibble>     0.898             2.00
    ##  6            6 <tibble [365 × 6]> <lm>   <tibble>     0.927             2.01
    ##  7            7 <tibble [365 × 6]> <lm>   <tibble>     0.905             2.02
    ##  8            8 <tibble [365 × 6]> <lm>   <tibble>     0.912             2.03
    ##  9            9 <tibble [365 × 6]> <lm>   <tibble>     0.922             2.02
    ## 10           10 <tibble [365 × 6]> <lm>   <tibble>     0.907             2.03
    ## # ℹ 4,990 more rows
…
